(kicad_sch (version 20211123) (generator eeschema)

  (uuid 72f8a3ba-7c20-4fa9-8e86-28393ff6a103)

  (paper "A4")

  (lib_symbols
  )

  (junction (at 245.11 58.42) (diameter 0) (color 0 0 0 0)
    (uuid 000e6583-07e2-4e55-a9b8-53bb1db8bbba)
  )
  (junction (at 67.31 58.42) (diameter 0) (color 0 0 0 0)
    (uuid 016a997c-a7fa-47a5-87d1-bf547ac5c014)
  )
  (junction (at 111.76 58.42) (diameter 0) (color 0 0 0 0)
    (uuid 1251989e-88e2-46f6-a83b-5ffe5e4ac690)
  )
  (junction (at 245.11 34.29) (diameter 0) (color 0 0 0 0)
    (uuid 29ae2ae1-dbad-4a75-a7a9-91781539250e)
  )
  (junction (at 67.31 82.55) (diameter 0) (color 0 0 0 0)
    (uuid 3b5eb630-2015-4229-9973-432d050e3a66)
  )
  (junction (at 200.66 34.29) (diameter 0) (color 0 0 0 0)
    (uuid 408e7aeb-e75b-40a1-b362-87223af46d84)
  )
  (junction (at 156.21 34.29) (diameter 0) (color 0 0 0 0)
    (uuid 45dfcc1e-0f66-4403-94a2-8b2c8d234592)
  )
  (junction (at 200.66 58.42) (diameter 0) (color 0 0 0 0)
    (uuid 649d7700-bb0e-44ed-87a7-bed46d460600)
  )
  (junction (at 111.76 34.29) (diameter 0) (color 0 0 0 0)
    (uuid 87bb87bc-5e78-43fd-81c6-ff1595a6b888)
  )
  (junction (at 156.21 58.42) (diameter 0) (color 0 0 0 0)
    (uuid 8eaad8a2-e783-401a-b15f-91fae9fb7daa)
  )
  (junction (at 67.31 34.29) (diameter 0) (color 0 0 0 0)
    (uuid a670f23a-2de6-42bf-8fb1-e97ae6c24173)
  )

  (wire (pts (xy 67.31 34.29) (xy 67.31 27.94))
    (stroke (width 0) (type default) (color 0 0 0 0))
    (uuid 032316dc-6ffa-4755-a78f-5ab46295bfaa)
  )
  (wire (pts (xy 156.21 58.42) (xy 156.21 52.07))
    (stroke (width 0) (type default) (color 0 0 0 0))
    (uuid 0c9e23d7-bb5f-446b-88f9-25d3335ed8b2)
  )
  (wire (pts (xy 66.04 58.42) (xy 67.31 58.42))
    (stroke (width 0) (type default) (color 0 0 0 0))
    (uuid 1057c300-2bf1-4131-a504-749d46675178)
  )
  (wire (pts (xy 210.82 36.83) (xy 212.09 36.83))
    (stroke (width 0) (type default) (color 0 0 0 0))
    (uuid 1e79436f-d8ae-4523-9179-68ebac5abdad)
  )
  (wire (pts (xy 154.94 58.42) (xy 156.21 58.42))
    (stroke (width 0) (type default) (color 0 0 0 0))
    (uuid 2037de0f-4047-4a89-be39-8a4ef9aa21a1)
  )
  (wire (pts (xy 245.11 34.29) (xy 245.11 45.72))
    (stroke (width 0) (type default) (color 0 0 0 0))
    (uuid 20e613af-945b-48c2-a84b-1f20debe27e0)
  )
  (wire (pts (xy 156.21 52.07) (xy 157.48 52.07))
    (stroke (width 0) (type default) (color 0 0 0 0))
    (uuid 22587870-34ea-440d-b758-515d694709de)
  )
  (wire (pts (xy 21.59 69.85) (xy 21.59 82.55))
    (stroke (width 0) (type default) (color 0 0 0 0))
    (uuid 227bc952-8994-47c7-a432-9efbbfce61bb)
  )
  (wire (pts (xy 156.21 58.42) (xy 167.64 58.42))
    (stroke (width 0) (type default) (color 0 0 0 0))
    (uuid 256f0a94-067e-41a9-a137-950dfc4473a0)
  )
  (wire (pts (xy 110.49 82.55) (xy 111.76 82.55))
    (stroke (width 0) (type default) (color 0 0 0 0))
    (uuid 26543278-748c-4d3f-bb86-509dedfe5fa0)
  )
  (wire (pts (xy 243.84 34.29) (xy 245.11 34.29))
    (stroke (width 0) (type default) (color 0 0 0 0))
    (uuid 2677f6e3-2226-446d-9a9d-65f65ec09198)
  )
  (wire (pts (xy 21.59 58.42) (xy 34.29 58.42))
    (stroke (width 0) (type default) (color 0 0 0 0))
    (uuid 26c30a08-1e94-4274-bc68-4795ffaf2902)
  )
  (wire (pts (xy 156.21 27.94) (xy 157.48 27.94))
    (stroke (width 0) (type default) (color 0 0 0 0))
    (uuid 279f5b6b-5cb0-438d-a881-0a3e38342f4d)
  )
  (wire (pts (xy 21.59 82.55) (xy 34.29 82.55))
    (stroke (width 0) (type default) (color 0 0 0 0))
    (uuid 2c4d78b0-b8c4-469a-abff-92f3b23b9cec)
  )
  (wire (pts (xy 210.82 60.96) (xy 212.09 60.96))
    (stroke (width 0) (type default) (color 0 0 0 0))
    (uuid 2d54ad8c-e36d-41f2-91ae-2bad2b76a027)
  )
  (wire (pts (xy 210.82 55.88) (xy 212.09 55.88))
    (stroke (width 0) (type default) (color 0 0 0 0))
    (uuid 2d9c3dd7-50aa-47b4-a6e9-3e15112b2cb7)
  )
  (wire (pts (xy 111.76 82.55) (xy 111.76 76.2))
    (stroke (width 0) (type default) (color 0 0 0 0))
    (uuid 3476195a-f3d7-456b-b8de-8a58b404ae79)
  )
  (wire (pts (xy 200.66 34.29) (xy 200.66 27.94))
    (stroke (width 0) (type default) (color 0 0 0 0))
    (uuid 3495e307-47b5-456a-bd88-0aea3058997c)
  )
  (wire (pts (xy 121.92 60.96) (xy 123.19 60.96))
    (stroke (width 0) (type default) (color 0 0 0 0))
    (uuid 34d24499-a4c5-43ba-ae9a-7737eab0c3c1)
  )
  (wire (pts (xy 66.04 82.55) (xy 67.31 82.55))
    (stroke (width 0) (type default) (color 0 0 0 0))
    (uuid 3522b835-4a91-414a-8dff-d689c1f23e7a)
  )
  (wire (pts (xy 24.13 17.78) (xy 34.29 17.78))
    (stroke (width 0) (type default) (color 0 0 0 0))
    (uuid 36ace794-6b41-4827-a441-c787aff607b4)
  )
  (wire (pts (xy 166.37 55.88) (xy 167.64 55.88))
    (stroke (width 0) (type default) (color 0 0 0 0))
    (uuid 383218d6-fbb4-48e1-b433-b8e27309f4b2)
  )
  (wire (pts (xy 166.37 31.75) (xy 167.64 31.75))
    (stroke (width 0) (type default) (color 0 0 0 0))
    (uuid 3a230a26-e3ae-44d6-9937-79223c0af8c9)
  )
  (wire (pts (xy 121.92 55.88) (xy 123.19 55.88))
    (stroke (width 0) (type default) (color 0 0 0 0))
    (uuid 3e899ac8-1959-4ab7-aec2-13454865fc0b)
  )
  (wire (pts (xy 67.31 58.42) (xy 67.31 52.07))
    (stroke (width 0) (type default) (color 0 0 0 0))
    (uuid 41256ac4-a4c7-40ea-835f-8cda83d17200)
  )
  (wire (pts (xy 77.47 60.96) (xy 78.74 60.96))
    (stroke (width 0) (type default) (color 0 0 0 0))
    (uuid 4150b5a5-4621-4bf7-b9f2-02c9788e11f8)
  )
  (wire (pts (xy 67.31 76.2) (xy 68.58 76.2))
    (stroke (width 0) (type default) (color 0 0 0 0))
    (uuid 42301acd-f835-4426-817b-5af1be292613)
  )
  (wire (pts (xy 33.02 85.09) (xy 34.29 85.09))
    (stroke (width 0) (type default) (color 0 0 0 0))
    (uuid 45fc47fd-2fab-4621-a49f-6f2820f5b883)
  )
  (wire (pts (xy 166.37 36.83) (xy 167.64 36.83))
    (stroke (width 0) (type default) (color 0 0 0 0))
    (uuid 4d3d5e3c-c0e4-4aee-b70a-a3d20c3aca57)
  )
  (wire (pts (xy 200.66 27.94) (xy 201.93 27.94))
    (stroke (width 0) (type default) (color 0 0 0 0))
    (uuid 4e11fe22-0700-40bb-89d7-f88f7662d215)
  )
  (wire (pts (xy 200.66 52.07) (xy 201.93 52.07))
    (stroke (width 0) (type default) (color 0 0 0 0))
    (uuid 5144dfa3-0b2c-4eb2-b32c-c10a8dbb894d)
  )
  (wire (pts (xy 243.84 58.42) (xy 245.11 58.42))
    (stroke (width 0) (type default) (color 0 0 0 0))
    (uuid 56493000-a2a2-4165-8391-27640b95e1a1)
  )
  (wire (pts (xy 111.76 58.42) (xy 111.76 52.07))
    (stroke (width 0) (type default) (color 0 0 0 0))
    (uuid 56f88ab8-a7d2-4932-a9aa-f34247c19c0f)
  )
  (wire (pts (xy 111.76 76.2) (xy 113.03 76.2))
    (stroke (width 0) (type default) (color 0 0 0 0))
    (uuid 5959621e-1029-4f7e-9453-b12d6dff5987)
  )
  (wire (pts (xy 33.02 31.75) (xy 34.29 31.75))
    (stroke (width 0) (type default) (color 0 0 0 0))
    (uuid 62c282c3-369f-4196-9398-34d567d04069)
  )
  (wire (pts (xy 245.11 58.42) (xy 245.11 69.85))
    (stroke (width 0) (type default) (color 0 0 0 0))
    (uuid 663ccaa6-c89f-41ab-919c-e8678244423a)
  )
  (wire (pts (xy 110.49 58.42) (xy 111.76 58.42))
    (stroke (width 0) (type default) (color 0 0 0 0))
    (uuid 69fdac84-909f-41e8-a76c-2567603136da)
  )
  (wire (pts (xy 110.49 34.29) (xy 111.76 34.29))
    (stroke (width 0) (type default) (color 0 0 0 0))
    (uuid 6ecd4abe-204a-450c-8de0-b7eddd821d2c)
  )
  (wire (pts (xy 245.11 52.07) (xy 246.38 52.07))
    (stroke (width 0) (type default) (color 0 0 0 0))
    (uuid 756a34f9-a63f-4206-b408-a273ee40be4f)
  )
  (wire (pts (xy 156.21 34.29) (xy 167.64 34.29))
    (stroke (width 0) (type default) (color 0 0 0 0))
    (uuid 7822de9a-bd34-4cb8-82ec-b1577a4dba4c)
  )
  (wire (pts (xy 77.47 85.09) (xy 78.74 85.09))
    (stroke (width 0) (type default) (color 0 0 0 0))
    (uuid 7eca66ba-9cc5-49a0-bfdc-cb36861f7029)
  )
  (wire (pts (xy 22.86 34.29) (xy 34.29 34.29))
    (stroke (width 0) (type default) (color 0 0 0 0))
    (uuid 809dd343-c833-40ca-8716-cc09df013ef6)
  )
  (wire (pts (xy 245.11 45.72) (xy 21.59 45.72))
    (stroke (width 0) (type default) (color 0 0 0 0))
    (uuid 81f1fb4f-b4c6-4fc7-b531-0357d5af61fd)
  )
  (wire (pts (xy 33.02 36.83) (xy 34.29 36.83))
    (stroke (width 0) (type default) (color 0 0 0 0))
    (uuid 88918832-66f8-4b28-a062-a482f12fae83)
  )
  (wire (pts (xy 199.39 58.42) (xy 200.66 58.42))
    (stroke (width 0) (type default) (color 0 0 0 0))
    (uuid 88c9c584-1c4b-4965-906a-dd774a883e67)
  )
  (wire (pts (xy 245.11 58.42) (xy 245.11 52.07))
    (stroke (width 0) (type default) (color 0 0 0 0))
    (uuid 89124ec6-a8a6-42f8-89df-a4fab2b86d23)
  )
  (wire (pts (xy 24.13 15.24) (xy 34.29 15.24))
    (stroke (width 0) (type default) (color 0 0 0 0))
    (uuid 92a32d5b-996f-4106-804f-714fd8357c65)
  )
  (wire (pts (xy 67.31 82.55) (xy 78.74 82.55))
    (stroke (width 0) (type default) (color 0 0 0 0))
    (uuid 95929858-2ae4-432b-bed6-31696af4d37c)
  )
  (wire (pts (xy 67.31 82.55) (xy 67.31 76.2))
    (stroke (width 0) (type default) (color 0 0 0 0))
    (uuid 95a8a004-0eeb-44e3-a4a3-8fc9b351baa8)
  )
  (wire (pts (xy 245.11 27.94) (xy 246.38 27.94))
    (stroke (width 0) (type default) (color 0 0 0 0))
    (uuid 988aef04-0de3-4ce3-9a7c-fc01ff5ebefd)
  )
  (wire (pts (xy 121.92 31.75) (xy 123.19 31.75))
    (stroke (width 0) (type default) (color 0 0 0 0))
    (uuid 9b042e25-40f5-4d6f-a1f8-0edd7a1fc911)
  )
  (wire (pts (xy 200.66 58.42) (xy 212.09 58.42))
    (stroke (width 0) (type default) (color 0 0 0 0))
    (uuid 9c08dcfb-a41b-4ee6-89cc-305bf33ab095)
  )
  (wire (pts (xy 111.76 34.29) (xy 111.76 27.94))
    (stroke (width 0) (type default) (color 0 0 0 0))
    (uuid 9cb469cf-2659-4285-9fd5-d185c35565f4)
  )
  (wire (pts (xy 77.47 31.75) (xy 78.74 31.75))
    (stroke (width 0) (type default) (color 0 0 0 0))
    (uuid 9ce72e42-93e7-489d-959f-c83205f61de5)
  )
  (wire (pts (xy 67.31 27.94) (xy 68.58 27.94))
    (stroke (width 0) (type default) (color 0 0 0 0))
    (uuid a05bfca6-4a2a-4dfd-ba2f-9bb6b7d0ed52)
  )
  (wire (pts (xy 33.02 55.88) (xy 34.29 55.88))
    (stroke (width 0) (type default) (color 0 0 0 0))
    (uuid a10ac763-0982-45df-98b8-dbd354029444)
  )
  (wire (pts (xy 67.31 58.42) (xy 78.74 58.42))
    (stroke (width 0) (type default) (color 0 0 0 0))
    (uuid a12d875f-6cc4-4819-9a30-6eb7ac47ec52)
  )
  (wire (pts (xy 121.92 36.83) (xy 123.19 36.83))
    (stroke (width 0) (type default) (color 0 0 0 0))
    (uuid a47e58a4-c80a-48a6-9539-db0008be0e9a)
  )
  (wire (pts (xy 166.37 60.96) (xy 167.64 60.96))
    (stroke (width 0) (type default) (color 0 0 0 0))
    (uuid a9012b18-4b4a-4fbb-ade1-e65a4f54d0c7)
  )
  (wire (pts (xy 156.21 34.29) (xy 156.21 27.94))
    (stroke (width 0) (type default) (color 0 0 0 0))
    (uuid ac3d28cd-17b7-4b9c-be6e-072497a87d70)
  )
  (wire (pts (xy 245.11 69.85) (xy 21.59 69.85))
    (stroke (width 0) (type default) (color 0 0 0 0))
    (uuid af496b04-80df-4d86-b9ba-6360de5c455f)
  )
  (wire (pts (xy 77.47 55.88) (xy 78.74 55.88))
    (stroke (width 0) (type default) (color 0 0 0 0))
    (uuid b0a3b5b3-3116-4adf-91ea-a65f440c66b9)
  )
  (wire (pts (xy 111.76 58.42) (xy 123.19 58.42))
    (stroke (width 0) (type default) (color 0 0 0 0))
    (uuid b0d00a73-8078-4632-9f26-d6da7d6884e4)
  )
  (wire (pts (xy 66.04 34.29) (xy 67.31 34.29))
    (stroke (width 0) (type default) (color 0 0 0 0))
    (uuid b2841b46-db3e-4cb2-8b37-214d28d7a41f)
  )
  (wire (pts (xy 245.11 34.29) (xy 245.11 27.94))
    (stroke (width 0) (type default) (color 0 0 0 0))
    (uuid c7150c1c-808f-4c61-9383-b7effb58bb53)
  )
  (wire (pts (xy 21.59 45.72) (xy 21.59 58.42))
    (stroke (width 0) (type default) (color 0 0 0 0))
    (uuid c758f7c7-93ef-4e71-9c22-4cb0f25cfa0c)
  )
  (wire (pts (xy 33.02 60.96) (xy 34.29 60.96))
    (stroke (width 0) (type default) (color 0 0 0 0))
    (uuid c85817bd-a36c-4a6c-ac20-070648ba4768)
  )
  (wire (pts (xy 200.66 58.42) (xy 200.66 52.07))
    (stroke (width 0) (type default) (color 0 0 0 0))
    (uuid cd55e45a-f8a4-46f3-87b7-56596e0e6203)
  )
  (wire (pts (xy 111.76 34.29) (xy 123.19 34.29))
    (stroke (width 0) (type default) (color 0 0 0 0))
    (uuid ce6cfe1f-f884-4a56-a16e-6c40148c49c5)
  )
  (wire (pts (xy 77.47 36.83) (xy 78.74 36.83))
    (stroke (width 0) (type default) (color 0 0 0 0))
    (uuid d3aa652a-f618-4301-8ae5-abfd87b37f46)
  )
  (wire (pts (xy 111.76 52.07) (xy 113.03 52.07))
    (stroke (width 0) (type default) (color 0 0 0 0))
    (uuid dbf27b38-28c8-4dc7-833c-433f28f9563c)
  )
  (wire (pts (xy 33.02 80.01) (xy 34.29 80.01))
    (stroke (width 0) (type default) (color 0 0 0 0))
    (uuid de8275a2-0fa7-4cb4-8837-df4185fadb94)
  )
  (wire (pts (xy 210.82 31.75) (xy 212.09 31.75))
    (stroke (width 0) (type default) (color 0 0 0 0))
    (uuid dfd6478b-4d15-4b04-b03f-712cf641f559)
  )
  (wire (pts (xy 200.66 34.29) (xy 212.09 34.29))
    (stroke (width 0) (type default) (color 0 0 0 0))
    (uuid e0f0609d-0c11-4863-b918-6583e7df63ae)
  )
  (wire (pts (xy 67.31 34.29) (xy 78.74 34.29))
    (stroke (width 0) (type default) (color 0 0 0 0))
    (uuid e2f5cae1-20e6-451d-8888-d4912f5fe01b)
  )
  (wire (pts (xy 154.94 34.29) (xy 156.21 34.29))
    (stroke (width 0) (type default) (color 0 0 0 0))
    (uuid e7a7ccfb-0dae-455f-aef0-efe33da66245)
  )
  (wire (pts (xy 67.31 52.07) (xy 68.58 52.07))
    (stroke (width 0) (type default) (color 0 0 0 0))
    (uuid f7ee4c3b-b074-422f-ab1f-6f7190c8a600)
  )
  (wire (pts (xy 111.76 27.94) (xy 113.03 27.94))
    (stroke (width 0) (type default) (color 0 0 0 0))
    (uuid f8e5718e-ff56-4e6f-852e-7aa875f26fe9)
  )
  (wire (pts (xy 77.47 80.01) (xy 78.74 80.01))
    (stroke (width 0) (type default) (color 0 0 0 0))
    (uuid f90f49fa-3b6b-4c4d-8db4-59a83de5e849)
  )
  (wire (pts (xy 199.39 34.29) (xy 200.66 34.29))
    (stroke (width 0) (type default) (color 0 0 0 0))
    (uuid fa0d6970-12d1-45a1-9061-3d2d036b6d4a)
  )

  (label "PWR_GND" (at 210.82 36.83 180)
    (effects (font (size 1.27 1.27)) (justify right bottom))
    (uuid 05a1ec09-aa49-4533-bd87-056f16246b7a)
  )
  (label "PWR_VCC" (at 77.47 80.01 180)
    (effects (font (size 1.27 1.27)) (justify right bottom))
    (uuid 25391bca-9b68-4520-ba93-983917b34004)
  )
  (label "PWR_VCC" (at 166.37 55.88 180)
    (effects (font (size 1.27 1.27)) (justify right bottom))
    (uuid 409f737c-6510-4d0f-85a6-e500766619b3)
  )
  (label "PWR_VCC" (at 77.47 55.88 180)
    (effects (font (size 1.27 1.27)) (justify right bottom))
    (uuid 4fa9e961-35e0-451f-8f9b-e9ed820663b4)
  )
  (label "PWR_VCC" (at 34.29 15.24 180)
    (effects (font (size 1.27 1.27)) (justify right bottom))
    (uuid 5c737065-87a0-455c-ae09-545dbdb36a05)
  )
  (label "PWR_GND" (at 121.92 60.96 180)
    (effects (font (size 1.27 1.27)) (justify right bottom))
    (uuid 6a030c0f-b674-4783-8790-54539d427bd2)
  )
  (label "PWR_GND" (at 77.47 85.09 180)
    (effects (font (size 1.27 1.27)) (justify right bottom))
    (uuid 6ad55c07-2b31-4d53-b25c-e0f037235469)
  )
  (label "PWR_GND" (at 77.47 36.83 180)
    (effects (font (size 1.27 1.27)) (justify right bottom))
    (uuid 6c9e0787-1c2e-402f-8b06-bba3ea2c5cdd)
  )
  (label "PWR_VCC" (at 33.02 31.75 180)
    (effects (font (size 1.27 1.27)) (justify right bottom))
    (uuid 6d66fce9-aad9-4de0-b005-898a9b309ccc)
  )
  (label "PWR_GND" (at 77.47 60.96 180)
    (effects (font (size 1.27 1.27)) (justify right bottom))
    (uuid 7484ace4-7f54-4337-9406-97bb94b9ce6f)
  )
  (label "PWR_GND" (at 121.92 36.83 180)
    (effects (font (size 1.27 1.27)) (justify right bottom))
    (uuid 7b9ef8d7-0483-47de-89e3-cf54c2493c57)
  )
  (label "PWR_GND" (at 166.37 36.83 180)
    (effects (font (size 1.27 1.27)) (justify right bottom))
    (uuid 87c824c8-2432-4a56-a7d6-15bc95ddb15d)
  )
  (label "PWR_VCC" (at 210.82 31.75 180)
    (effects (font (size 1.27 1.27)) (justify right bottom))
    (uuid 8cc6f3db-443b-44e6-b5ba-4720eea00179)
  )
  (label "PWR_GND" (at 166.37 60.96 180)
    (effects (font (size 1.27 1.27)) (justify right bottom))
    (uuid 8efcaeb7-a074-4549-9ef6-0bfec5cb35ce)
  )
  (label "PWR_VCC" (at 121.92 55.88 180)
    (effects (font (size 1.27 1.27)) (justify right bottom))
    (uuid 91d2f4ac-f9da-45a9-8e77-2595e1eb8044)
  )
  (label "PWR_VCC" (at 210.82 55.88 180)
    (effects (font (size 1.27 1.27)) (justify right bottom))
    (uuid 9dd8e684-644a-42a5-9d20-d1cc587b98b2)
  )
  (label "PWR_GND" (at 34.29 17.78 180)
    (effects (font (size 1.27 1.27)) (justify right bottom))
    (uuid a6d02d84-c482-48d4-8b29-5f1728b04253)
  )
  (label "PWR_VCC" (at 121.92 31.75 180)
    (effects (font (size 1.27 1.27)) (justify right bottom))
    (uuid ae643273-2329-4b93-9271-09735860a279)
  )
  (label "PWR_VCC" (at 33.02 80.01 180)
    (effects (font (size 1.27 1.27)) (justify right bottom))
    (uuid bf23fbba-a81a-4484-8c88-ac4792e3ec02)
  )
  (label "PWR_GND" (at 33.02 60.96 180)
    (effects (font (size 1.27 1.27)) (justify right bottom))
    (uuid c843ab5c-2ac2-4de2-bc57-02536ef154d5)
  )
  (label "PWR_VCC" (at 33.02 55.88 180)
    (effects (font (size 1.27 1.27)) (justify right bottom))
    (uuid d7ab0087-f813-4e50-9e1b-244649585b92)
  )
  (label "PWR_GND" (at 210.82 60.96 180)
    (effects (font (size 1.27 1.27)) (justify right bottom))
    (uuid d8af9f3c-01fc-4cb7-8dc8-660653052b57)
  )
  (label "PWR_VCC" (at 166.37 31.75 180)
    (effects (font (size 1.27 1.27)) (justify right bottom))
    (uuid e807453a-ac53-4f27-a90e-987f094a678e)
  )
  (label "PWR_VCC" (at 77.47 31.75 180)
    (effects (font (size 1.27 1.27)) (justify right bottom))
    (uuid e88d0bfb-5c32-42ba-85ea-c22da23cef23)
  )
  (label "PWR_GND" (at 33.02 85.09 180)
    (effects (font (size 1.27 1.27)) (justify right bottom))
    (uuid f55c9d34-40d1-438d-a4bb-6f38652d4029)
  )
  (label "PWR_GND" (at 33.02 36.83 180)
    (effects (font (size 1.27 1.27)) (justify right bottom))
    (uuid f8e568aa-1b92-4391-acd1-626063bcf45e)
  )

  (hierarchical_label "Out10" (shape output) (at 246.38 52.07 0)
    (effects (font (size 1.27 1.27)) (justify left))
    (uuid 0399e9d5-cb01-4535-b25a-10963e7b1d80)
  )
  (hierarchical_label "Out8" (shape output) (at 157.48 52.07 0)
    (effects (font (size 1.27 1.27)) (justify left))
    (uuid 059f5c36-328f-46bd-82d0-1271d8d91a63)
  )
  (hierarchical_label "Out2" (shape output) (at 113.03 27.94 0)
    (effects (font (size 1.27 1.27)) (justify left))
    (uuid 15fc0f3a-6631-4b9e-8da9-7d6eeb9f06aa)
  )
  (hierarchical_label "Out9" (shape output) (at 201.93 52.07 0)
    (effects (font (size 1.27 1.27)) (justify left))
    (uuid 4aeddc03-720d-4912-8c7c-2e6e32cdbf36)
  )
  (hierarchical_label "PWR_GND" (shape input) (at 24.13 17.78 180)
    (effects (font (size 1.27 1.27)) (justify right))
    (uuid 58af8b72-1d44-4a2f-a0b9-c2d5b63a71d4)
  )
  (hierarchical_label "PWR_VCC" (shape input) (at 24.13 15.24 180)
    (effects (font (size 1.27 1.27)) (justify right))
    (uuid 868b4842-2e30-48f5-9308-29333bc5dd00)
  )
  (hierarchical_label "In" (shape input) (at 22.86 34.29 180)
    (effects (font (size 1.27 1.27)) (justify right))
    (uuid 922741d8-da9a-45ec-820e-08c3bade7286)
  )
  (hierarchical_label "Out5" (shape output) (at 246.38 27.94 0)
    (effects (font (size 1.27 1.27)) (justify left))
    (uuid 9ffa0be9-d2ce-4220-b068-f4c76b9c75da)
  )
  (hierarchical_label "Out11" (shape output) (at 68.58 76.2 0)
    (effects (font (size 1.27 1.27)) (justify left))
    (uuid b4b46ce2-e5a9-47e0-9765-1e7ce58339d5)
  )
  (hierarchical_label "Out6" (shape output) (at 68.58 52.07 0)
    (effects (font (size 1.27 1.27)) (justify left))
    (uuid c57bbbb2-493f-4ed0-9178-404024ee2650)
  )
  (hierarchical_label "Out7" (shape output) (at 113.03 52.07 0)
    (effects (font (size 1.27 1.27)) (justify left))
    (uuid d3732b89-8266-4ebc-88cf-06237c087748)
  )
  (hierarchical_label "Out1" (shape output) (at 68.58 27.94 0)
    (effects (font (size 1.27 1.27)) (justify left))
    (uuid d55ea1b9-3f23-4d28-83ac-8ae552555d3b)
  )
  (hierarchical_label "Out4" (shape output) (at 201.93 27.94 0)
    (effects (font (size 1.27 1.27)) (justify left))
    (uuid e148ba8f-53d9-4f7a-918c-0b7071d73ad8)
  )
  (hierarchical_label "Out12" (shape output) (at 113.03 76.2 0)
    (effects (font (size 1.27 1.27)) (justify left))
    (uuid edf07d63-f521-4c2c-ab80-e5ab836a0647)
  )
  (hierarchical_label "Out3" (shape output) (at 157.48 27.94 0)
    (effects (font (size 1.27 1.27)) (justify left))
    (uuid f06087bf-c98f-47c3-a633-7206ab05de85)
  )

  (sheet (at 167.64 53.34) (size 31.75 10.16) (fields_autoplaced)
    (stroke (width 0.1524) (type solid) (color 0 0 0 0))
    (fill (color 0 0 0 0.0000))
    (uuid 0075f0fb-a993-4f9d-9ee5-9845c8688ae5)
    (property "Sheet name" "Train_NotGate_PD_9" (id 0) (at 167.64 52.6284 0)
      (effects (font (size 1.27 1.27)) (justify left bottom))
    )
    (property "Sheet file" "NPN_NotGate_PD.kicad_sch" (id 1) (at 167.64 64.0846 0)
      (effects (font (size 1.27 1.27)) (justify left top))
    )
    (pin "PWR-" input (at 167.64 60.96 180)
      (effects (font (size 1.27 1.27)) (justify left))
      (uuid 1596debb-0718-4c10-aee7-e2aabee92c59)
    )
    (pin "PWR+" input (at 167.64 55.88 180)
      (effects (font (size 1.27 1.27)) (justify left))
      (uuid bd46f97d-b7f5-49fd-8338-cbe5a444c4be)
    )
    (pin "Out" output (at 199.39 58.42 0)
      (effects (font (size 1.27 1.27)) (justify right))
      (uuid 3eb49abd-06a4-44c5-b8f3-9c8fc5703a66)
    )
    (pin "In" input (at 167.64 58.42 180)
      (effects (font (size 1.27 1.27)) (justify left))
      (uuid 26b62f31-d62b-43fd-924e-edf825e06a59)
    )
  )

  (sheet (at 167.64 29.21) (size 31.75 10.16) (fields_autoplaced)
    (stroke (width 0.1524) (type solid) (color 0 0 0 0))
    (fill (color 0 0 0 0.0000))
    (uuid 0372e6df-ae5c-4dc5-a36d-e41668db06a9)
    (property "Sheet name" "Train_NotGate_PD_4" (id 0) (at 167.64 28.4984 0)
      (effects (font (size 1.27 1.27)) (justify left bottom))
    )
    (property "Sheet file" "NPN_NotGate_PD.kicad_sch" (id 1) (at 167.64 39.9546 0)
      (effects (font (size 1.27 1.27)) (justify left top))
    )
    (pin "PWR-" input (at 167.64 36.83 180)
      (effects (font (size 1.27 1.27)) (justify left))
      (uuid 5d899bb0-75ca-48ee-83bd-564e93e60dd5)
    )
    (pin "PWR+" input (at 167.64 31.75 180)
      (effects (font (size 1.27 1.27)) (justify left))
      (uuid 7edc7e09-3e02-4837-b312-205954e8024d)
    )
    (pin "Out" output (at 199.39 34.29 0)
      (effects (font (size 1.27 1.27)) (justify right))
      (uuid 4c4daa8d-2f88-4527-8800-93f19135dc9a)
    )
    (pin "In" input (at 167.64 34.29 180)
      (effects (font (size 1.27 1.27)) (justify left))
      (uuid ee981a75-8078-401b-b709-d0d1beb5507b)
    )
  )

  (sheet (at 123.19 53.34) (size 31.75 10.16) (fields_autoplaced)
    (stroke (width 0.1524) (type solid) (color 0 0 0 0))
    (fill (color 0 0 0 0.0000))
    (uuid 179452eb-2608-4d4c-964a-6f5eedd48566)
    (property "Sheet name" "Train_NotGate_PD_8" (id 0) (at 123.19 52.6284 0)
      (effects (font (size 1.27 1.27)) (justify left bottom))
    )
    (property "Sheet file" "NPN_NotGate_PD.kicad_sch" (id 1) (at 123.19 64.0846 0)
      (effects (font (size 1.27 1.27)) (justify left top))
    )
    (pin "PWR-" input (at 123.19 60.96 180)
      (effects (font (size 1.27 1.27)) (justify left))
      (uuid 432f8133-6a37-455b-b752-e6276867ff00)
    )
    (pin "PWR+" input (at 123.19 55.88 180)
      (effects (font (size 1.27 1.27)) (justify left))
      (uuid c4eb9512-cfb4-4933-b345-b4cedb41ac9c)
    )
    (pin "Out" output (at 154.94 58.42 0)
      (effects (font (size 1.27 1.27)) (justify right))
      (uuid 3299e2d1-ba42-4283-98b3-006a8f11fa4a)
    )
    (pin "In" input (at 123.19 58.42 180)
      (effects (font (size 1.27 1.27)) (justify left))
      (uuid 842b23d5-06a5-44fc-9328-58a665edcc0d)
    )
  )

  (sheet (at 123.19 29.21) (size 31.75 10.16) (fields_autoplaced)
    (stroke (width 0.1524) (type solid) (color 0 0 0 0))
    (fill (color 0 0 0 0.0000))
    (uuid 2b29d583-9b0e-41f8-8bd3-9687b08e9d4b)
    (property "Sheet name" "Train_NotGate_PD_3" (id 0) (at 123.19 28.4984 0)
      (effects (font (size 1.27 1.27)) (justify left bottom))
    )
    (property "Sheet file" "NPN_NotGate_PD.kicad_sch" (id 1) (at 123.19 39.9546 0)
      (effects (font (size 1.27 1.27)) (justify left top))
    )
    (pin "PWR-" input (at 123.19 36.83 180)
      (effects (font (size 1.27 1.27)) (justify left))
      (uuid 25bf81a8-7f18-4cd8-b81c-a9aa4653e39a)
    )
    (pin "PWR+" input (at 123.19 31.75 180)
      (effects (font (size 1.27 1.27)) (justify left))
      (uuid 5e54daa7-f639-4f26-bd3e-04aa58e2d615)
    )
    (pin "Out" output (at 154.94 34.29 0)
      (effects (font (size 1.27 1.27)) (justify right))
      (uuid 65e6ce73-9bde-45c5-8972-3052d175a063)
    )
    (pin "In" input (at 123.19 34.29 180)
      (effects (font (size 1.27 1.27)) (justify left))
      (uuid 7c46029c-5995-4e50-9d83-b081848743f6)
    )
  )

  (sheet (at 34.29 53.34) (size 31.75 10.16) (fields_autoplaced)
    (stroke (width 0.1524) (type solid) (color 0 0 0 0))
    (fill (color 0 0 0 0.0000))
    (uuid 6ff20490-8525-4a79-96b2-bcc69d0f4b99)
    (property "Sheet name" "Train_NotGate_PD_6" (id 0) (at 34.29 52.6284 0)
      (effects (font (size 1.27 1.27)) (justify left bottom))
    )
    (property "Sheet file" "NPN_NotGate_PD.kicad_sch" (id 1) (at 34.29 64.0846 0)
      (effects (font (size 1.27 1.27)) (justify left top))
    )
    (pin "PWR-" input (at 34.29 60.96 180)
      (effects (font (size 1.27 1.27)) (justify left))
      (uuid 8ad7303e-8cd5-4d48-a85e-db0877325377)
    )
    (pin "PWR+" input (at 34.29 55.88 180)
      (effects (font (size 1.27 1.27)) (justify left))
      (uuid 93b846ff-d398-426f-806b-82390ba6acb5)
    )
    (pin "Out" output (at 66.04 58.42 0)
      (effects (font (size 1.27 1.27)) (justify right))
      (uuid 70c3a6ff-b7e7-49d6-937d-66dcf3acb750)
    )
    (pin "In" input (at 34.29 58.42 180)
      (effects (font (size 1.27 1.27)) (justify left))
      (uuid 01a395a9-6eb1-4159-923d-4a93244bfaff)
    )
  )

  (sheet (at 78.74 77.47) (size 31.75 10.16) (fields_autoplaced)
    (stroke (width 0.1524) (type solid) (color 0 0 0 0))
    (fill (color 0 0 0 0.0000))
    (uuid 9e200f74-6dad-4949-9784-3bbeab02d275)
    (property "Sheet name" "Train_NotGate_PD_12" (id 0) (at 78.74 76.7584 0)
      (effects (font (size 1.27 1.27)) (justify left bottom))
    )
    (property "Sheet file" "NPN_NotGate_PD.kicad_sch" (id 1) (at 78.74 88.2146 0)
      (effects (font (size 1.27 1.27)) (justify left top))
    )
    (pin "PWR-" input (at 78.74 85.09 180)
      (effects (font (size 1.27 1.27)) (justify left))
      (uuid 8991cf53-570f-4e00-a903-8a72307f5e3c)
    )
    (pin "PWR+" input (at 78.74 80.01 180)
      (effects (font (size 1.27 1.27)) (justify left))
      (uuid 0a45ee40-d62f-46f7-97f2-1009b6312b2c)
    )
    (pin "Out" output (at 110.49 82.55 0)
      (effects (font (size 1.27 1.27)) (justify right))
      (uuid 1114d836-e144-4313-98b2-2da3dcba86e2)
    )
    (pin "In" input (at 78.74 82.55 180)
      (effects (font (size 1.27 1.27)) (justify left))
      (uuid 41f8ce09-ed5d-42f6-abfc-82b4750ed0b9)
    )
  )

  (sheet (at 34.29 29.21) (size 31.75 10.16) (fields_autoplaced)
    (stroke (width 0.1524) (type solid) (color 0 0 0 0))
    (fill (color 0 0 0 0.0000))
    (uuid b34fbda9-ea10-480e-9868-347a3efd05ac)
    (property "Sheet name" "Train_NotGate_PD_1" (id 0) (at 34.29 28.4984 0)
      (effects (font (size 1.27 1.27)) (justify left bottom))
    )
    (property "Sheet file" "NPN_NotGate_PD.kicad_sch" (id 1) (at 34.29 39.9546 0)
      (effects (font (size 1.27 1.27)) (justify left top))
    )
    (pin "PWR-" input (at 34.29 36.83 180)
      (effects (font (size 1.27 1.27)) (justify left))
      (uuid d887cf33-5d8c-48cd-9df0-67536e39385f)
    )
    (pin "PWR+" input (at 34.29 31.75 180)
      (effects (font (size 1.27 1.27)) (justify left))
      (uuid 9ca4ad23-6ade-4a40-87e1-a49e4c5150aa)
    )
    (pin "Out" output (at 66.04 34.29 0)
      (effects (font (size 1.27 1.27)) (justify right))
      (uuid 872ca652-7303-4dc3-87fd-16fe31137f71)
    )
    (pin "In" input (at 34.29 34.29 180)
      (effects (font (size 1.27 1.27)) (justify left))
      (uuid 786d0d0f-f20e-4184-8bc7-548c142d5f0d)
    )
  )

  (sheet (at 212.09 29.21) (size 31.75 10.16) (fields_autoplaced)
    (stroke (width 0.1524) (type solid) (color 0 0 0 0))
    (fill (color 0 0 0 0.0000))
    (uuid b98ced3c-52a2-4aad-ae45-ef8b2c83569e)
    (property "Sheet name" "Train_NotGate_PD_5" (id 0) (at 212.09 28.4984 0)
      (effects (font (size 1.27 1.27)) (justify left bottom))
    )
    (property "Sheet file" "NPN_NotGate_PD.kicad_sch" (id 1) (at 212.09 39.9546 0)
      (effects (font (size 1.27 1.27)) (justify left top))
    )
    (pin "PWR-" input (at 212.09 36.83 180)
      (effects (font (size 1.27 1.27)) (justify left))
      (uuid f97bcd72-250b-42c2-9709-598f170bf042)
    )
    (pin "PWR+" input (at 212.09 31.75 180)
      (effects (font (size 1.27 1.27)) (justify left))
      (uuid 5e7095b8-c092-4f80-87e3-9a57f295037b)
    )
    (pin "Out" output (at 243.84 34.29 0)
      (effects (font (size 1.27 1.27)) (justify right))
      (uuid 8a521274-bdbc-4e08-931c-0e841c974999)
    )
    (pin "In" input (at 212.09 34.29 180)
      (effects (font (size 1.27 1.27)) (justify left))
      (uuid 42455d60-70c8-49f8-9917-b0a31a51f4bf)
    )
  )

  (sheet (at 34.29 77.47) (size 31.75 10.16) (fields_autoplaced)
    (stroke (width 0.1524) (type solid) (color 0 0 0 0))
    (fill (color 0 0 0 0.0000))
    (uuid c0244f87-416f-43e6-a1ca-66665bfcf84b)
    (property "Sheet name" "Train_NotGate_PD_11" (id 0) (at 34.29 76.7584 0)
      (effects (font (size 1.27 1.27)) (justify left bottom))
    )
    (property "Sheet file" "NPN_NotGate_PD.kicad_sch" (id 1) (at 34.29 88.2146 0)
      (effects (font (size 1.27 1.27)) (justify left top))
    )
    (pin "PWR-" input (at 34.29 85.09 180)
      (effects (font (size 1.27 1.27)) (justify left))
      (uuid 51be86ed-bcc6-45ab-ad36-1f1b833629b7)
    )
    (pin "PWR+" input (at 34.29 80.01 180)
      (effects (font (size 1.27 1.27)) (justify left))
      (uuid 3b42d524-673d-4d63-b5d8-93f52d2f53f5)
    )
    (pin "Out" output (at 66.04 82.55 0)
      (effects (font (size 1.27 1.27)) (justify right))
      (uuid 116f4818-79f0-4ddf-a513-8cbc883d35e6)
    )
    (pin "In" input (at 34.29 82.55 180)
      (effects (font (size 1.27 1.27)) (justify left))
      (uuid dc010228-932f-4216-9f0f-2aba3d93c571)
    )
  )

  (sheet (at 78.74 53.34) (size 31.75 10.16) (fields_autoplaced)
    (stroke (width 0.1524) (type solid) (color 0 0 0 0))
    (fill (color 0 0 0 0.0000))
    (uuid d6215865-4b83-4550-866d-ca6f34b237ba)
    (property "Sheet name" "Train_NotGate_PD_7" (id 0) (at 78.74 52.6284 0)
      (effects (font (size 1.27 1.27)) (justify left bottom))
    )
    (property "Sheet file" "NPN_NotGate_PD.kicad_sch" (id 1) (at 78.74 64.0846 0)
      (effects (font (size 1.27 1.27)) (justify left top))
    )
    (pin "PWR-" input (at 78.74 60.96 180)
      (effects (font (size 1.27 1.27)) (justify left))
      (uuid 9dcbfed2-0dae-4d23-99b1-307da4edda59)
    )
    (pin "PWR+" input (at 78.74 55.88 180)
      (effects (font (size 1.27 1.27)) (justify left))
      (uuid f1bfd61d-4562-4fa4-856b-6e5b65ee5f4b)
    )
    (pin "Out" output (at 110.49 58.42 0)
      (effects (font (size 1.27 1.27)) (justify right))
      (uuid 0fada09a-b204-4ea8-a00f-78dbfc3df1fc)
    )
    (pin "In" input (at 78.74 58.42 180)
      (effects (font (size 1.27 1.27)) (justify left))
      (uuid ca847444-da1f-4d26-8175-1ebec0bb259a)
    )
  )

  (sheet (at 212.09 53.34) (size 31.75 10.16) (fields_autoplaced)
    (stroke (width 0.1524) (type solid) (color 0 0 0 0))
    (fill (color 0 0 0 0.0000))
    (uuid dd52f734-5b0d-45cf-8954-ccc8710fa7e3)
    (property "Sheet name" "Train_NotGate_PD_10" (id 0) (at 212.09 52.6284 0)
      (effects (font (size 1.27 1.27)) (justify left bottom))
    )
    (property "Sheet file" "NPN_NotGate_PD.kicad_sch" (id 1) (at 212.09 64.0846 0)
      (effects (font (size 1.27 1.27)) (justify left top))
    )
    (pin "PWR-" input (at 212.09 60.96 180)
      (effects (font (size 1.27 1.27)) (justify left))
      (uuid 0fb72b05-04b3-454d-9765-e22429c6f633)
    )
    (pin "PWR+" input (at 212.09 55.88 180)
      (effects (font (size 1.27 1.27)) (justify left))
      (uuid fdb90df6-77bd-40bb-b5e7-cdb400abbba6)
    )
    (pin "Out" output (at 243.84 58.42 0)
      (effects (font (size 1.27 1.27)) (justify right))
      (uuid 7fecf0b3-84c5-40bc-9c6e-89cfef0d9da8)
    )
    (pin "In" input (at 212.09 58.42 180)
      (effects (font (size 1.27 1.27)) (justify left))
      (uuid 6042e014-c05a-44db-8990-5b1348b232e5)
    )
  )

  (sheet (at 78.74 29.21) (size 31.75 10.16) (fields_autoplaced)
    (stroke (width 0.1524) (type solid) (color 0 0 0 0))
    (fill (color 0 0 0 0.0000))
    (uuid ed401e51-1465-4abe-b327-6fc8d6c5a147)
    (property "Sheet name" "Train_NotGate_PD_2" (id 0) (at 78.74 28.4984 0)
      (effects (font (size 1.27 1.27)) (justify left bottom))
    )
    (property "Sheet file" "NPN_NotGate_PD.kicad_sch" (id 1) (at 78.74 39.9546 0)
      (effects (font (size 1.27 1.27)) (justify left top))
    )
    (pin "PWR-" input (at 78.74 36.83 180)
      (effects (font (size 1.27 1.27)) (justify left))
      (uuid 7cb4029d-54cd-4fc9-b4c1-dc346dc46bb2)
    )
    (pin "PWR+" input (at 78.74 31.75 180)
      (effects (font (size 1.27 1.27)) (justify left))
      (uuid 973ee032-6677-49a9-9ad5-741d5d6f57fb)
    )
    (pin "Out" output (at 110.49 34.29 0)
      (effects (font (size 1.27 1.27)) (justify right))
      (uuid 123d04f1-2ebf-4464-bf92-537165aadf98)
    )
    (pin "In" input (at 78.74 34.29 180)
      (effects (font (size 1.27 1.27)) (justify left))
      (uuid 88cdb6d6-826c-441b-aaf5-0339e4114008)
    )
  )
)
