(kicad_sch (version 20211123) (generator eeschema)

  (uuid 2db8ddf2-d74b-48e8-9ba6-f7f53734dc39)

  (paper "A4")

  (lib_symbols
    (symbol "Device:R" (pin_numbers hide) (pin_names (offset 0)) (in_bom yes) (on_board yes)
      (property "Reference" "R" (id 0) (at 2.032 0 90)
        (effects (font (size 1.27 1.27)))
      )
      (property "Value" "R" (id 1) (at 0 0 90)
        (effects (font (size 1.27 1.27)))
      )
      (property "Footprint" "" (id 2) (at -1.778 0 90)
        (effects (font (size 1.27 1.27)) hide)
      )
      (property "Datasheet" "~" (id 3) (at 0 0 0)
        (effects (font (size 1.27 1.27)) hide)
      )
      (property "ki_keywords" "R res resistor" (id 4) (at 0 0 0)
        (effects (font (size 1.27 1.27)) hide)
      )
      (property "ki_description" "Resistor" (id 5) (at 0 0 0)
        (effects (font (size 1.27 1.27)) hide)
      )
      (property "ki_fp_filters" "R_*" (id 6) (at 0 0 0)
        (effects (font (size 1.27 1.27)) hide)
      )
      (symbol "R_0_1"
        (rectangle (start -1.016 -2.54) (end 1.016 2.54)
          (stroke (width 0.254) (type default) (color 0 0 0 0))
          (fill (type none))
        )
      )
      (symbol "R_1_1"
        (pin passive line (at 0 3.81 270) (length 1.27)
          (name "~" (effects (font (size 1.27 1.27))))
          (number "1" (effects (font (size 1.27 1.27))))
        )
        (pin passive line (at 0 -3.81 90) (length 1.27)
          (name "~" (effects (font (size 1.27 1.27))))
          (number "2" (effects (font (size 1.27 1.27))))
        )
      )
    )
    (symbol "Transistor_BJT:MMBT3904" (pin_names (offset 0) hide) (in_bom yes) (on_board yes)
      (property "Reference" "Q" (id 0) (at 5.08 1.905 0)
        (effects (font (size 1.27 1.27)) (justify left))
      )
      (property "Value" "MMBT3904" (id 1) (at 5.08 0 0)
        (effects (font (size 1.27 1.27)) (justify left))
      )
      (property "Footprint" "Package_TO_SOT_SMD:SOT-23" (id 2) (at 5.08 -1.905 0)
        (effects (font (size 1.27 1.27) italic) (justify left) hide)
      )
      (property "Datasheet" "https://www.onsemi.com/pub/Collateral/2N3903-D.PDF" (id 3) (at 0 0 0)
        (effects (font (size 1.27 1.27)) (justify left) hide)
      )
      (property "ki_keywords" "NPN Transistor" (id 4) (at 0 0 0)
        (effects (font (size 1.27 1.27)) hide)
      )
      (property "ki_description" "0.2A Ic, 40V Vce, Small Signal NPN Transistor, SOT-23" (id 5) (at 0 0 0)
        (effects (font (size 1.27 1.27)) hide)
      )
      (property "ki_fp_filters" "SOT?23*" (id 6) (at 0 0 0)
        (effects (font (size 1.27 1.27)) hide)
      )
      (symbol "MMBT3904_0_1"
        (polyline
          (pts
            (xy 0.635 0.635)
            (xy 2.54 2.54)
          )
          (stroke (width 0) (type default) (color 0 0 0 0))
          (fill (type none))
        )
        (polyline
          (pts
            (xy 0.635 -0.635)
            (xy 2.54 -2.54)
            (xy 2.54 -2.54)
          )
          (stroke (width 0) (type default) (color 0 0 0 0))
          (fill (type none))
        )
        (polyline
          (pts
            (xy 0.635 1.905)
            (xy 0.635 -1.905)
            (xy 0.635 -1.905)
          )
          (stroke (width 0.508) (type default) (color 0 0 0 0))
          (fill (type none))
        )
        (polyline
          (pts
            (xy 1.27 -1.778)
            (xy 1.778 -1.27)
            (xy 2.286 -2.286)
            (xy 1.27 -1.778)
            (xy 1.27 -1.778)
          )
          (stroke (width 0) (type default) (color 0 0 0 0))
          (fill (type outline))
        )
        (circle (center 1.27 0) (radius 2.8194)
          (stroke (width 0.254) (type default) (color 0 0 0 0))
          (fill (type none))
        )
      )
      (symbol "MMBT3904_1_1"
        (pin input line (at -5.08 0 0) (length 5.715)
          (name "B" (effects (font (size 1.27 1.27))))
          (number "1" (effects (font (size 1.27 1.27))))
        )
        (pin passive line (at 2.54 -5.08 90) (length 2.54)
          (name "E" (effects (font (size 1.27 1.27))))
          (number "2" (effects (font (size 1.27 1.27))))
        )
        (pin passive line (at 2.54 5.08 270) (length 2.54)
          (name "C" (effects (font (size 1.27 1.27))))
          (number "3" (effects (font (size 1.27 1.27))))
        )
      )
    )
  )

  (junction (at 152.4 100.33) (diameter 0) (color 0 0 0 0)
    (uuid 2abb2934-707a-4eef-b1bb-24fdbf770ad9)
  )

  (wire (pts (xy 152.4 82.55) (xy 152.4 87.63))
    (stroke (width 0) (type default) (color 0 0 0 0))
    (uuid 05cd6602-3215-49b8-9fc3-32aa858ef86c)
  )
  (wire (pts (xy 152.4 97.79) (xy 152.4 100.33))
    (stroke (width 0) (type default) (color 0 0 0 0))
    (uuid 38975a00-5b01-45bb-9252-e16f0d0500d2)
  )
  (wire (pts (xy 127 92.71) (xy 132.08 92.71))
    (stroke (width 0) (type default) (color 0 0 0 0))
    (uuid 64bb4bb8-607f-4df5-9366-f6186842865c)
  )
  (wire (pts (xy 152.4 110.49) (xy 152.4 114.3))
    (stroke (width 0) (type default) (color 0 0 0 0))
    (uuid 76ffa46b-9029-46ba-98e6-e7bc2c5d08a5)
  )
  (wire (pts (xy 139.7 92.71) (xy 144.78 92.71))
    (stroke (width 0) (type default) (color 0 0 0 0))
    (uuid 8c7b1d89-e583-4b3e-8407-0133482de6c0)
  )
  (wire (pts (xy 152.4 100.33) (xy 163.83 100.33))
    (stroke (width 0) (type default) (color 0 0 0 0))
    (uuid 917f1e9a-a519-4a5f-81c7-d109cc04d09f)
  )
  (wire (pts (xy 152.4 100.33) (xy 152.4 102.87))
    (stroke (width 0) (type default) (color 0 0 0 0))
    (uuid b31de8c5-30a4-4a6e-9fc1-6889c71938b6)
  )

  (label "Base" (at 142.24 92.71 0)
    (effects (font (size 1.27 1.27)) (justify left bottom))
    (uuid f6c65fd8-cd78-4532-a24b-27a5d51f5a15)
  )

  (hierarchical_label "PWR+" (shape input) (at 152.4 82.55 90)
    (effects (font (size 1.27 1.27)) (justify left))
    (uuid 0dcba72f-3bb1-4dc5-88b2-fe0e84069da9)
  )
  (hierarchical_label "In" (shape input) (at 127 92.71 180)
    (effects (font (size 1.27 1.27)) (justify right))
    (uuid 6a0e21e0-f4ea-4dc9-a6a5-a7bba35bc278)
  )
  (hierarchical_label "Out" (shape output) (at 163.83 100.33 0)
    (effects (font (size 1.27 1.27)) (justify left))
    (uuid ef7b8c11-e1db-405c-9d2a-ce73a61358da)
  )
  (hierarchical_label "PWR-" (shape input) (at 152.4 114.3 270)
    (effects (font (size 1.27 1.27)) (justify right))
    (uuid fa016c28-ba85-4f56-8e2f-9b944926c421)
  )

  (symbol (lib_id "Device:R") (at 135.89 92.71 90) (unit 1)
    (in_bom yes) (on_board yes) (fields_autoplaced)
    (uuid 3c5b0907-3895-4698-a474-402b3ab42c89)
    (property "Reference" "R?" (id 0) (at 135.89 86.36 90))
    (property "Value" "{brace}RB_NPN_BUFF}" (id 1) (at 135.89 88.9 90))
    (property "Footprint" "Resistor_SMD:R_0805_2012Metric_Pad1.20x1.40mm_HandSolder" (id 2) (at 135.89 94.488 90)
      (effects (font (size 1.27 1.27)) hide)
    )
    (property "Datasheet" "~" (id 3) (at 135.89 92.71 0)
      (effects (font (size 1.27 1.27)) hide)
    )
    (pin "1" (uuid 42a318e3-a981-4aab-bf02-1642bd901551))
    (pin "2" (uuid 7b3e7fd5-2b70-4e8a-a955-c3ab94473276))
  )

  (symbol (lib_id "Transistor_BJT:MMBT3904") (at 149.86 92.71 0) (unit 1)
    (in_bom yes) (on_board yes) (fields_autoplaced)
    (uuid 7c944d5b-b1b3-46b1-aa93-c0e017bf5cfc)
    (property "Reference" "Q?" (id 0) (at 154.94 91.4399 0)
      (effects (font (size 1.27 1.27)) (justify left))
    )
    (property "Value" "MMBT3904" (id 1) (at 154.94 93.9799 0)
      (effects (font (size 1.27 1.27)) (justify left))
    )
    (property "Footprint" "Package_TO_SOT_SMD:SOT-23_Handsoldering" (id 2) (at 154.94 94.615 0)
      (effects (font (size 1.27 1.27) italic) (justify left) hide)
    )
    (property "Datasheet" "https://www.onsemi.com/pub/Collateral/2N3903-D.PDF" (id 3) (at 149.86 92.71 0)
      (effects (font (size 1.27 1.27)) (justify left) hide)
    )
    (property "Spice_Primitive" "X" (id 4) (at 149.86 92.71 0)
      (effects (font (size 1.27 1.27)) hide)
    )
    (property "Spice_Model" "PMBT3904" (id 5) (at 149.86 92.71 0)
      (effects (font (size 1.27 1.27)) hide)
    )
    (property "Spice_Netlist_Enabled" "Y" (id 6) (at 149.86 92.71 0)
      (effects (font (size 1.27 1.27)) hide)
    )
    (property "Spice_Node_Sequence" "3 1 2" (id 7) (at 149.86 92.71 0)
      (effects (font (size 1.27 1.27)) hide)
    )
    (property "Spice_Lib_File" "../HierarchicalSheets/PMBT3904.lib.txt" (id 8) (at 149.86 92.71 0)
      (effects (font (size 1.27 1.27)) hide)
    )
    (pin "1" (uuid 49e3a964-6dad-4923-87a4-b48c63c08a13))
    (pin "2" (uuid e53a12d6-c980-42e5-a3e3-d3a159c955cd))
    (pin "3" (uuid 26258415-52d4-4cbf-9b12-dde756d2e957))
  )

  (symbol (lib_id "Device:R") (at 152.4 106.68 0) (unit 1)
    (in_bom yes) (on_board yes) (fields_autoplaced)
    (uuid 9c85fa0d-64c8-4d7b-83ad-1d682c51d1a9)
    (property "Reference" "R?" (id 0) (at 154.94 105.4099 0)
      (effects (font (size 1.27 1.27)) (justify left))
    )
    (property "Value" "{brace}RE_NPN_BUFF}" (id 1) (at 154.94 107.9499 0)
      (effects (font (size 1.27 1.27)) (justify left))
    )
    (property "Footprint" "Resistor_SMD:R_0805_2012Metric_Pad1.20x1.40mm_HandSolder" (id 2) (at 150.622 106.68 90)
      (effects (font (size 1.27 1.27)) hide)
    )
    (property "Datasheet" "~" (id 3) (at 152.4 106.68 0)
      (effects (font (size 1.27 1.27)) hide)
    )
    (pin "1" (uuid e6f757f8-cd71-4286-993c-73b2f5272931))
    (pin "2" (uuid 3ad01d81-27a5-4e7a-95fd-6b84fe5df27f))
  )
)
