(kicad_sch (version 20211123) (generator eeschema)

  (uuid 473455f4-877d-409f-a50d-d708064e00ce)

  (paper "A4")

  (lib_symbols
  )

  (junction (at 29.21 24.13) (diameter 0) (color 0 0 0 0)
    (uuid 70196213-e9fe-4882-a849-34066d071731)
  )
  (junction (at 29.21 41.91) (diameter 0) (color 0 0 0 0)
    (uuid bd41f874-c9e0-47bf-8379-890601f05bc9)
  )

  (wire (pts (xy 24.13 41.91) (xy 29.21 41.91))
    (stroke (width 0) (type default) (color 0 0 0 0))
    (uuid 1f20bf06-cb28-4b95-be68-770f7942b8e5)
  )
  (wire (pts (xy 99.06 33.02) (xy 106.68 33.02))
    (stroke (width 0) (type default) (color 0 0 0 0))
    (uuid 2d295ec2-9a03-4fa4-83f6-3db08b3e3d86)
  )
  (wire (pts (xy 67.31 41.91) (xy 67.31 35.56))
    (stroke (width 0) (type default) (color 0 0 0 0))
    (uuid 2dec661a-9fcd-4fa1-9c1e-fb21db289f5c)
  )
  (wire (pts (xy 29.21 24.13) (xy 67.31 24.13))
    (stroke (width 0) (type default) (color 0 0 0 0))
    (uuid 4c705293-2236-4ee6-802d-0d7d32d6362c)
  )
  (wire (pts (xy 33.02 30.48) (xy 29.21 30.48))
    (stroke (width 0) (type default) (color 0 0 0 0))
    (uuid 6a0dd623-838e-4b10-8e10-95a7fffedb3d)
  )
  (wire (pts (xy 33.02 35.56) (xy 29.21 35.56))
    (stroke (width 0) (type default) (color 0 0 0 0))
    (uuid 6f437e99-5c00-4f47-91c3-6a9fa014e2fd)
  )
  (wire (pts (xy 24.13 24.13) (xy 29.21 24.13))
    (stroke (width 0) (type default) (color 0 0 0 0))
    (uuid 77c89ded-125e-4820-be99-23080f4b15cf)
  )
  (wire (pts (xy 29.21 30.48) (xy 29.21 24.13))
    (stroke (width 0) (type default) (color 0 0 0 0))
    (uuid 94928fc3-3e22-45ea-9ac3-1639aae09616)
  )
  (wire (pts (xy 29.21 35.56) (xy 29.21 41.91))
    (stroke (width 0) (type default) (color 0 0 0 0))
    (uuid a0735fe5-e3dc-45c0-b3e9-ca8fe102a6a9)
  )
  (wire (pts (xy 67.31 24.13) (xy 67.31 30.48))
    (stroke (width 0) (type default) (color 0 0 0 0))
    (uuid a8b99e2b-44b3-4b6f-8806-96ca56fb009e)
  )
  (wire (pts (xy 24.13 33.02) (xy 33.02 33.02))
    (stroke (width 0) (type default) (color 0 0 0 0))
    (uuid b142b791-8711-44c4-a8bf-9d26eac74e25)
  )
  (wire (pts (xy 67.31 35.56) (xy 71.12 35.56))
    (stroke (width 0) (type default) (color 0 0 0 0))
    (uuid cfd7af8c-4926-4e0b-9c8e-6bc822272b58)
  )
  (wire (pts (xy 29.21 41.91) (xy 67.31 41.91))
    (stroke (width 0) (type default) (color 0 0 0 0))
    (uuid d5ba436b-0da7-45a4-a072-2c19c688e379)
  )
  (wire (pts (xy 67.31 30.48) (xy 71.12 30.48))
    (stroke (width 0) (type default) (color 0 0 0 0))
    (uuid f55bc92c-ebd9-4da2-9996-faf0c1cb4e7b)
  )
  (wire (pts (xy 60.96 33.02) (xy 71.12 33.02))
    (stroke (width 0) (type default) (color 0 0 0 0))
    (uuid fa695ad0-082b-4b08-8f87-f847f4139847)
  )

  (hierarchical_label "Out" (shape output) (at 106.68 33.02 0)
    (effects (font (size 1.27 1.27)) (justify left))
    (uuid 2af87177-4006-45cd-9d4b-1f535c03e811)
  )
  (hierarchical_label "PWR_VCC" (shape input) (at 24.13 24.13 180)
    (effects (font (size 1.27 1.27)) (justify right))
    (uuid 38d12f5e-4eb2-465b-8002-7bd0c0cbbe1a)
  )
  (hierarchical_label "PWR_GND" (shape input) (at 24.13 41.91 180)
    (effects (font (size 1.27 1.27)) (justify right))
    (uuid 3bf9d9dc-2096-440d-9e17-8e93dddc76dc)
  )
  (hierarchical_label "In" (shape input) (at 24.13 33.02 180)
    (effects (font (size 1.27 1.27)) (justify right))
    (uuid bd87f77a-86d1-4d8a-8c3d-5db0b8543df9)
  )

  (sheet (at 33.02 27.94) (size 27.94 10.16) (fields_autoplaced)
    (stroke (width 0.1524) (type solid) (color 0 0 0 0))
    (fill (color 0 0 0 0.0000))
    (uuid 5bfb1e74-874b-4113-ba29-1134f237c3ea)
    (property "Sheet name" "NotGateA" (id 0) (at 33.02 27.2284 0)
      (effects (font (size 1.27 1.27)) (justify left bottom))
    )
    (property "Sheet file" "NPN_NotGate.kicad_sch" (id 1) (at 33.02 38.6846 0)
      (effects (font (size 1.27 1.27)) (justify left top))
    )
    (pin "Out" output (at 60.96 33.02 0)
      (effects (font (size 1.27 1.27)) (justify right))
      (uuid df2f2bff-ca9a-47d6-a0cc-5f92e0d7e4df)
    )
    (pin "PWR-" input (at 33.02 35.56 180)
      (effects (font (size 1.27 1.27)) (justify left))
      (uuid 506ff91c-a2e2-4214-91f6-24eb3daf2e87)
    )
    (pin "In" input (at 33.02 33.02 180)
      (effects (font (size 1.27 1.27)) (justify left))
      (uuid 58d5130a-63b0-4991-88dc-544976c52fc2)
    )
    (pin "PWR+" input (at 33.02 30.48 180)
      (effects (font (size 1.27 1.27)) (justify left))
      (uuid dbb591d1-d312-4ec1-a6d8-ce400d78ecf0)
    )
  )

  (sheet (at 71.12 27.94) (size 27.94 10.16) (fields_autoplaced)
    (stroke (width 0.1524) (type solid) (color 0 0 0 0))
    (fill (color 0 0 0 0.0000))
    (uuid c50ecbef-02ab-4c82-8cfc-0126aad3bf81)
    (property "Sheet name" "NotGateB" (id 0) (at 71.12 27.2284 0)
      (effects (font (size 1.27 1.27)) (justify left bottom))
    )
    (property "Sheet file" "NPN_NotGate.kicad_sch" (id 1) (at 71.12 38.6846 0)
      (effects (font (size 1.27 1.27)) (justify left top))
    )
    (pin "Out" output (at 99.06 33.02 0)
      (effects (font (size 1.27 1.27)) (justify right))
      (uuid 1434c7bf-28e9-4d64-ab3a-de234020bb6b)
    )
    (pin "PWR-" input (at 71.12 35.56 180)
      (effects (font (size 1.27 1.27)) (justify left))
      (uuid 0189b02d-ef73-4a23-ac78-f284e9de81a7)
    )
    (pin "In" input (at 71.12 33.02 180)
      (effects (font (size 1.27 1.27)) (justify left))
      (uuid 0019e2fc-57ae-4c10-8116-6d3fd8ff6e80)
    )
    (pin "PWR+" input (at 71.12 30.48 180)
      (effects (font (size 1.27 1.27)) (justify left))
      (uuid 5abc9482-ee15-4961-a04b-edac203f31b7)
    )
  )
)
