(kicad_sch (version 20211123) (generator eeschema)

  (uuid 745cfe00-4455-4bfe-81c0-248cc71eed20)

  (paper "A4")

  (lib_symbols
  )

  (junction (at 67.31 35.56) (diameter 0) (color 0 0 0 0)
    (uuid b140e76d-0a03-424b-9ec0-f0195ce5189b)
  )

  (wire (pts (xy 67.31 29.21) (xy 67.31 35.56))
    (stroke (width 0) (type default) (color 0 0 0 0))
    (uuid 1242e474-7802-4142-a865-59f2217d7acd)
  )
  (wire (pts (xy 34.29 38.1) (xy 35.56 38.1))
    (stroke (width 0) (type default) (color 0 0 0 0))
    (uuid 2824204f-2444-40db-bde4-9685b9683303)
  )
  (wire (pts (xy 80.01 31.75) (xy 81.28 31.75))
    (stroke (width 0) (type default) (color 0 0 0 0))
    (uuid 303f905f-6e86-4234-91c5-0cae3b59cb46)
  )
  (wire (pts (xy 80.01 45.72) (xy 81.28 45.72))
    (stroke (width 0) (type default) (color 0 0 0 0))
    (uuid 318c8973-9411-49dc-be59-e3d5b8a569db)
  )
  (wire (pts (xy 109.22 48.26) (xy 114.3 48.26))
    (stroke (width 0) (type default) (color 0 0 0 0))
    (uuid 412f0970-1961-4d13-b85a-a9a5ee5466fe)
  )
  (wire (pts (xy 24.13 35.56) (xy 35.56 35.56))
    (stroke (width 0) (type default) (color 0 0 0 0))
    (uuid 496f3f3c-8f41-4f8d-bfb1-984992b45e4b)
  )
  (wire (pts (xy 80.01 50.8) (xy 81.28 50.8))
    (stroke (width 0) (type default) (color 0 0 0 0))
    (uuid 9d2cffd2-2cb6-435c-bde6-6a6bf9ec64c2)
  )
  (wire (pts (xy 34.29 33.02) (xy 35.56 33.02))
    (stroke (width 0) (type default) (color 0 0 0 0))
    (uuid a25b6b71-fb50-4033-8bec-48df50699cba)
  )
  (wire (pts (xy 24.13 15.24) (xy 34.29 15.24))
    (stroke (width 0) (type default) (color 0 0 0 0))
    (uuid a5951e93-e6fb-4a16-9994-68db8a9a250c)
  )
  (wire (pts (xy 67.31 35.56) (xy 63.5 35.56))
    (stroke (width 0) (type default) (color 0 0 0 0))
    (uuid b93ace1b-7391-4ca4-a3ce-d315acea0cb6)
  )
  (wire (pts (xy 81.28 29.21) (xy 67.31 29.21))
    (stroke (width 0) (type default) (color 0 0 0 0))
    (uuid c13507ad-ee44-41d8-9e0f-7987509ea4ee)
  )
  (wire (pts (xy 24.13 17.78) (xy 34.29 17.78))
    (stroke (width 0) (type default) (color 0 0 0 0))
    (uuid c376d3a3-ba0d-4330-93db-bf58b8925775)
  )
  (wire (pts (xy 109.22 29.21) (xy 114.3 29.21))
    (stroke (width 0) (type default) (color 0 0 0 0))
    (uuid d01a0409-d1a8-48db-8a65-34e4026f78a3)
  )
  (wire (pts (xy 80.01 26.67) (xy 81.28 26.67))
    (stroke (width 0) (type default) (color 0 0 0 0))
    (uuid d044ab64-48fb-45c9-b47c-2d54091f746c)
  )
  (wire (pts (xy 67.31 48.26) (xy 67.31 35.56))
    (stroke (width 0) (type default) (color 0 0 0 0))
    (uuid ecbb462e-d267-46cc-8161-4cb88b12cb76)
  )
  (wire (pts (xy 81.28 48.26) (xy 67.31 48.26))
    (stroke (width 0) (type default) (color 0 0 0 0))
    (uuid f7bc0406-2bbb-49fa-9024-4a8c679dd849)
  )

  (label "PWR_VCC" (at 80.01 26.67 180)
    (effects (font (size 1.27 1.27)) (justify right bottom))
    (uuid 1e13426a-1741-499d-bac9-29e34905c7a8)
  )
  (label "PWR_GND" (at 80.01 31.75 180)
    (effects (font (size 1.27 1.27)) (justify right bottom))
    (uuid 38177f54-5c83-48ea-9eca-104bbbf38dc4)
  )
  (label "PWR_VCC" (at 80.01 45.72 180)
    (effects (font (size 1.27 1.27)) (justify right bottom))
    (uuid 592c1cd6-4172-41ea-a95d-179c87654c58)
  )
  (label "PWR_VCC" (at 34.29 15.24 180)
    (effects (font (size 1.27 1.27)) (justify right bottom))
    (uuid 635120f1-f82e-4697-86d1-50fca5d67107)
  )
  (label "PWR_GND" (at 34.29 38.1 180)
    (effects (font (size 1.27 1.27)) (justify right bottom))
    (uuid be1847a3-d477-4279-bd64-29bc4ce24e7f)
  )
  (label "PWR_GND" (at 80.01 50.8 180)
    (effects (font (size 1.27 1.27)) (justify right bottom))
    (uuid cff4e0e8-b60f-42e1-bc85-bed2763b376d)
  )
  (label "PWR_GND" (at 34.29 17.78 180)
    (effects (font (size 1.27 1.27)) (justify right bottom))
    (uuid def114a8-df87-4946-80c5-881fe956abf7)
  )
  (label "PWR_VCC" (at 34.29 33.02 180)
    (effects (font (size 1.27 1.27)) (justify right bottom))
    (uuid f9e49f0f-b3a0-4c36-ba1e-fe05f294da70)
  )

  (hierarchical_label "Out1" (shape output) (at 114.3 29.21 0)
    (effects (font (size 1.27 1.27)) (justify left))
    (uuid 1e2b7c8c-c830-4378-8c89-1970abdb1deb)
  )
  (hierarchical_label "Out2" (shape output) (at 114.3 48.26 0)
    (effects (font (size 1.27 1.27)) (justify left))
    (uuid 2dd473d2-3cb5-4902-8fd2-deea07aba1b1)
  )
  (hierarchical_label "PWR_GND" (shape input) (at 24.13 17.78 180)
    (effects (font (size 1.27 1.27)) (justify right))
    (uuid 8f018944-a90e-4085-a05a-0521ea93b593)
  )
  (hierarchical_label "In" (shape input) (at 24.13 35.56 180)
    (effects (font (size 1.27 1.27)) (justify right))
    (uuid b48ee240-0bbe-48a0-9d95-9de1336418d1)
  )
  (hierarchical_label "PWR_VCC" (shape input) (at 24.13 15.24 180)
    (effects (font (size 1.27 1.27)) (justify right))
    (uuid f67e26b9-6b5d-46e4-9cb4-05fb8f5548f6)
  )

  (sheet (at 81.28 24.13) (size 27.94 10.16) (fields_autoplaced)
    (stroke (width 0.1524) (type solid) (color 0 0 0 0))
    (fill (color 0 0 0 0.0000))
    (uuid 263188c6-1801-4ca9-8e8e-9b40a993723f)
    (property "Sheet name" "Split2_NotGate_Output1" (id 0) (at 81.28 23.4184 0)
      (effects (font (size 1.27 1.27)) (justify left bottom))
    )
    (property "Sheet file" "NPN_NotGate.kicad_sch" (id 1) (at 81.28 34.8746 0)
      (effects (font (size 1.27 1.27)) (justify left top))
    )
    (pin "Out" output (at 109.22 29.21 0)
      (effects (font (size 1.27 1.27)) (justify right))
      (uuid cd53d1da-8af3-4d03-968c-0deec54e1570)
    )
    (pin "PWR-" input (at 81.28 31.75 180)
      (effects (font (size 1.27 1.27)) (justify left))
      (uuid 060ae3fb-68fa-4451-b81c-11b9a01e7b08)
    )
    (pin "In" input (at 81.28 29.21 180)
      (effects (font (size 1.27 1.27)) (justify left))
      (uuid e256fb4b-be9c-4256-8fc6-572e54e29e94)
    )
    (pin "PWR+" input (at 81.28 26.67 180)
      (effects (font (size 1.27 1.27)) (justify left))
      (uuid 17a19a39-8d72-421d-807e-770880948bf2)
    )
  )

  (sheet (at 35.56 30.48) (size 27.94 10.16) (fields_autoplaced)
    (stroke (width 0.1524) (type solid) (color 0 0 0 0))
    (fill (color 0 0 0 0.0000))
    (uuid 682245c2-948a-49f3-b894-a5b1dd78d893)
    (property "Sheet name" "Split2_NotGate_Input" (id 0) (at 35.56 29.7684 0)
      (effects (font (size 1.27 1.27)) (justify left bottom))
    )
    (property "Sheet file" "NPN_NotGate.kicad_sch" (id 1) (at 35.56 41.2246 0)
      (effects (font (size 1.27 1.27)) (justify left top))
    )
    (pin "Out" output (at 63.5 35.56 0)
      (effects (font (size 1.27 1.27)) (justify right))
      (uuid e764549c-40fd-45f1-a701-8e405d2be9b7)
    )
    (pin "PWR-" input (at 35.56 38.1 180)
      (effects (font (size 1.27 1.27)) (justify left))
      (uuid b565019b-b002-4b30-8db3-24b4a493cbb9)
    )
    (pin "In" input (at 35.56 35.56 180)
      (effects (font (size 1.27 1.27)) (justify left))
      (uuid 8fa9e713-1bd9-4c48-8e91-afe4888250f0)
    )
    (pin "PWR+" input (at 35.56 33.02 180)
      (effects (font (size 1.27 1.27)) (justify left))
      (uuid 00bc41ae-c4d0-4045-b54c-c6536a4ee3a2)
    )
  )

  (sheet (at 81.28 43.18) (size 27.94 10.16) (fields_autoplaced)
    (stroke (width 0.1524) (type solid) (color 0 0 0 0))
    (fill (color 0 0 0 0.0000))
    (uuid d224c7f1-cdea-40c7-bf62-89fc1162909e)
    (property "Sheet name" "Split2_NotGate_Output2" (id 0) (at 81.28 42.4684 0)
      (effects (font (size 1.27 1.27)) (justify left bottom))
    )
    (property "Sheet file" "NPN_NotGate.kicad_sch" (id 1) (at 81.28 53.9246 0)
      (effects (font (size 1.27 1.27)) (justify left top))
    )
    (pin "Out" output (at 109.22 48.26 0)
      (effects (font (size 1.27 1.27)) (justify right))
      (uuid b82b97f6-4039-44b8-8242-6395006d6b01)
    )
    (pin "PWR-" input (at 81.28 50.8 180)
      (effects (font (size 1.27 1.27)) (justify left))
      (uuid 8590cf8f-a282-4414-82c6-b098d1ccd682)
    )
    (pin "In" input (at 81.28 48.26 180)
      (effects (font (size 1.27 1.27)) (justify left))
      (uuid c142cbbc-4fef-4e02-8deb-33b80d3b2129)
    )
    (pin "PWR+" input (at 81.28 45.72 180)
      (effects (font (size 1.27 1.27)) (justify left))
      (uuid 8c430806-5b6a-4e21-935c-2b846919f759)
    )
  )
)
