(kicad_sch (version 20211123) (generator eeschema)

  (uuid 4368d76a-bfd6-43ec-97f4-34019b9953ce)

  (paper "A4")

  (lib_symbols
  )


  (sheet (at 27.94 41.91) (size 40.64 10.16) (fields_autoplaced)
    (stroke (width 0.1524) (type solid) (color 0 0 0 0))
    (fill (color 0 0 0 0.0000))
    (uuid 21d0c846-a288-47b0-95d8-8e57dc77fe44)
    (property "Sheet name" "AZ1117C_LDO" (id 0) (at 27.94 41.1984 0)
      (effects (font (size 1.27 1.27)) (justify left bottom))
    )
    (property "Sheet file" "PowerSupply_AZ1117C_LDO.kicad_sch" (id 1) (at 27.94 52.6546 0)
      (effects (font (size 1.27 1.27)) (justify left top))
    )
    (pin "Regulated" output (at 68.58 44.45 0)
      (effects (font (size 1.27 1.27)) (justify right))
      (uuid d9dff9ba-225e-481f-ab2d-a10ac45d92e9)
    )
    (pin "Enable" input (at 27.94 46.99 180)
      (effects (font (size 1.27 1.27)) (justify left))
      (uuid 206ca310-2e54-441a-b2af-07f48c735378)
    )
    (pin "Reference" input (at 27.94 49.53 180)
      (effects (font (size 1.27 1.27)) (justify left))
      (uuid 62340422-4deb-4cca-9164-268c00ee53ef)
    )
    (pin "Unregulated" input (at 27.94 44.45 180)
      (effects (font (size 1.27 1.27)) (justify left))
      (uuid 7a457db7-c381-4564-bc6d-b2f581902796)
    )
  )

  (sheet (at 27.94 58.42) (size 40.64 10.16) (fields_autoplaced)
    (stroke (width 0.1524) (type solid) (color 0 0 0 0))
    (fill (color 0 0 0 0.0000))
    (uuid 362266d6-6b26-4715-99d5-b2da4a5b8663)
    (property "Sheet name" "TCR2EF_LDO" (id 0) (at 27.94 57.7084 0)
      (effects (font (size 1.27 1.27)) (justify left bottom))
    )
    (property "Sheet file" "PowerSupply_TCR2EF_LDO.kicad_sch" (id 1) (at 27.94 69.1646 0)
      (effects (font (size 1.27 1.27)) (justify left top))
    )
    (pin "Unregulated" input (at 27.94 60.96 180)
      (effects (font (size 1.27 1.27)) (justify left))
      (uuid 8da96d14-1833-45f0-9895-1a14249c9a57)
    )
    (pin "Enable" input (at 27.94 63.5 180)
      (effects (font (size 1.27 1.27)) (justify left))
      (uuid 55a678b9-bc6e-48f4-b2d8-f794421defcc)
    )
    (pin "Regulated" output (at 68.58 60.96 0)
      (effects (font (size 1.27 1.27)) (justify right))
      (uuid 6d864fff-7114-47ac-8cc0-33c8bf79a28a)
    )
    (pin "Reference" input (at 27.94 66.04 180)
      (effects (font (size 1.27 1.27)) (justify left))
      (uuid 03244847-0aba-4ab5-aa0c-adc9264ae5d9)
    )
  )

  (sheet (at 27.94 25.4) (size 40.64 10.16) (fields_autoplaced)
    (stroke (width 0.1524) (type solid) (color 0 0 0 0))
    (fill (color 0 0 0 0.0000))
    (uuid c29fda6e-1354-43be-8e34-e032a16bf2c0)
    (property "Sheet name" "MIC550x_LDO" (id 0) (at 27.94 24.6884 0)
      (effects (font (size 1.27 1.27)) (justify left bottom))
    )
    (property "Sheet file" "PowerSupply_MIC550x_LDO.kicad_sch" (id 1) (at 27.94 36.1446 0)
      (effects (font (size 1.27 1.27)) (justify left top))
    )
    (pin "Unregulated" input (at 27.94 27.94 180)
      (effects (font (size 1.27 1.27)) (justify left))
      (uuid 731dd19b-18f0-45f2-9de0-a1db331293bf)
    )
    (pin "Reference" input (at 27.94 33.02 180)
      (effects (font (size 1.27 1.27)) (justify left))
      (uuid b86a7c9e-992b-46c0-ac19-1971912943a3)
    )
    (pin "Enable" input (at 27.94 30.48 180)
      (effects (font (size 1.27 1.27)) (justify left))
      (uuid 8bb17a21-8f7e-43c3-817c-e8dbed8c3ed0)
    )
    (pin "Regulated" output (at 68.58 27.94 0)
      (effects (font (size 1.27 1.27)) (justify right))
      (uuid 6210234d-f8f9-4d16-a51e-c51bf8ce4057)
    )
  )
)
